{
    "skeleton": {
        "hash": "I/7fQ3HUl7K5nZxI0rc3VTedtAI",
        "spine": "3.8.99",
        "x": -979.57,
        "y": -927.02,
        "width": 1905.8,
        "height": 1819.06,
        "images": "./images/",
        "audio": "C:/Users/Tamara/Dropbox/SpinUp Gaming's shared workspace/Clients/EE Games/Star Popz/06_Animation/transition"
    },
    "bones": [
        {
            "name": "root"
        },
        {
            "name": "ctrl",
            "parent": "root",
            "scaleX": 2,
            "scaleY": 2
        },
        {
            "name": "1group",
            "parent": "ctrl"
        },
        {
            "name": "2group",
            "parent": "ctrl"
        },
        {
            "name": "3group",
            "parent": "ctrl"
        },
        {
            "name": "center",
            "parent": "ctrl"
        },
        {
            "name": "4group",
            "parent": "ctrl"
        },
        {
            "name": "5group",
            "parent": "ctrl"
        },
        {
            "name": "symbol_star2",
            "parent": "ctrl",
            "rotation": -90,
            "x": 123.12,
            "y": 24.71,
            "scaleX": 0.8,
            "scaleY": 0.8,
            "color": "ff00f9ff"
        },
        {
            "name": "symbol_star3",
            "parent": "ctrl",
            "x": -14.41,
            "y": -89.28,
            "scaleX": 0.7,
            "scaleY": 0.7,
            "color": "ff00f9ff"
        },
        {
            "name": "symbol_star",
            "parent": "ctrl",
            "x": -145.74,
            "y": 84.18,
            "color": "ff00f9ff"
        },
        {
            "name": "center2",
            "parent": "ctrl"
        },
        {
            "name": "electric",
            "parent": "ctrl",
            "scaleX": -1
        },
        {
            "name": "cloud_2copy4",
            "parent": "4group",
            "x": 53.11,
            "y": 174.35
        }
    ],
    "slots": [
        {
            "name": "cloud_0",
            "bone": "center",
            "attachment": "cloud_0"
        },
        {
            "name": "cloud_17",
            "bone": "center2",
            "attachment": "cloud_0"
        },
        {
            "name": "cloud_3",
            "bone": "5group",
            "attachment": "cloud_3"
        },
        {
            "name": "cloud_3copy5",
            "bone": "3group",
            "attachment": "cloud_3"
        },
        {
            "name": "cloud_2",
            "bone": "1group",
            "attachment": "cloud_2"
        },
        {
            "name": "cloud_3copy3",
            "bone": "1group",
            "attachment": "cloud_3"
        },
        {
            "name": "cloud_2copy2",
            "bone": "2group",
            "attachment": "cloud_2"
        },
        {
            "name": "cloud_2 copy",
            "bone": "3group",
            "attachment": "cloud_2"
        },
        {
            "name": "cloud_1 copy",
            "bone": "4group",
            "attachment": "cloud_1"
        },
        {
            "name": "cloud_3copy4",
            "bone": "4group",
            "attachment": "cloud_3"
        },
        {
            "name": "cloud_2copy3",
            "bone": "1group",
            "attachment": "cloud_2"
        },
        {
            "name": "cloud_1copy3",
            "bone": "5group",
            "attachment": "cloud_1"
        },
        {
            "name": "cloud_2copy4",
            "bone": "cloud_2copy4",
            "attachment": "cloud_2"
        },
        {
            "name": "cloud_5",
            "bone": "5group",
            "attachment": "cloud_5"
        },
        {
            "name": "cloud_1copy2",
            "bone": "1group",
            "attachment": "cloud_1"
        },
        {
            "name": "cloud_1",
            "bone": "3group",
            "attachment": "cloud_1"
        },
        {
            "name": "cloud_4_copy",
            "bone": "2group",
            "attachment": "cloud_4"
        },
        {
            "name": "electric2_00000",
            "bone": "electric"
        },
        {
            "name": "cloud4",
            "bone": "3group",
            "attachment": "cloud_4"
        },
        {
            "name": "cloud_6",
            "bone": "2group",
            "attachment": "cloud_6"
        },
        {
            "name": "cloud_7",
            "bone": "3group",
            "attachment": "cloud_7"
        },
        {
            "name": "cloud_8",
            "bone": "4group",
            "attachment": "cloud_8"
        },
        {
            "name": "cloud_8copy4",
            "bone": "3group",
            "attachment": "cloud_8"
        },
        {
            "name": "cloud_8copy",
            "bone": "5group",
            "attachment": "cloud_8"
        },
        {
            "name": "cloud_9",
            "bone": "5group",
            "attachment": "cloud_9"
        },
        {
            "name": "cloud_9copy5",
            "bone": "2group",
            "attachment": "cloud_9"
        },
        {
            "name": "cloud_9copy4",
            "bone": "1group",
            "attachment": "cloud_9"
        },
        {
            "name": "cloud_9copy",
            "bone": "2group",
            "attachment": "cloud_9"
        },
        {
            "name": "cloud_7copy",
            "bone": "1group",
            "attachment": "cloud_7"
        },
        {
            "name": "cloud_6copy2",
            "bone": "4group",
            "attachment": "cloud_6"
        },
        {
            "name": "cloud_7copy5",
            "bone": "5group",
            "attachment": "cloud_7"
        },
        {
            "name": "cloud_6copy",
            "bone": "4group",
            "attachment": "cloud_6"
        },
        {
            "name": "cloud_7copy4",
            "bone": "5group",
            "attachment": "cloud_7"
        },
        {
            "name": "cloud_7copy2",
            "bone": "2group",
            "attachment": "cloud_7"
        },
        {
            "name": "cloud_8copy2",
            "bone": "2group",
            "attachment": "cloud_8"
        },
        {
            "name": "cloud_8copy3",
            "bone": "1group",
            "attachment": "cloud_8"
        },
        {
            "name": "cloud_9copy2",
            "bone": "4group",
            "attachment": "cloud_9"
        },
        {
            "name": "cloud_9copy3",
            "bone": "3group",
            "attachment": "cloud_9"
        },
        {
            "name": "cloud_3copy2",
            "bone": "4group",
            "attachment": "cloud_3"
        },
        {
            "name": "cloud_7copy3",
            "bone": "5group",
            "attachment": "cloud_7"
        },
        {
            "name": "symbol_star",
            "bone": "symbol_star",
            "attachment": "symbol_star"
        },
        {
            "name": "symbol_star3",
            "bone": "symbol_star3",
            "attachment": "symbol_star"
        },
        {
            "name": "symbol_star2",
            "bone": "symbol_star2",
            "attachment": "symbol_star"
        }
    ],
    "skins": [
        {
            "name": "default",
            "attachments": {
                "cloud4": {
                    "cloud_4": {
                        "x": -14,
                        "y": -32.5,
                        "width": 288,
                        "height": 234
                    }
                },
                "cloud_0": {
                    "cloud_0": {
                        "x": 4.5,
                        "y": -3,
                        "scaleX": 2,
                        "scaleY": 2,
                        "width": 262,
                        "height": 258
                    }
                },
                "cloud_1": {
                    "cloud_1": {
                        "x": 89,
                        "y": -149,
                        "rotation": -40,
                        "width": 260,
                        "height": 359
                    }
                },
                "cloud_1 copy": {
                    "cloud_1": {
                        "x": -95.5,
                        "y": -147,
                        "rotation": -60,
                        "width": 260,
                        "height": 359
                    }
                },
                "cloud_1copy2": {
                    "cloud_1": {
                        "x": 161,
                        "y": 36.5,
                        "rotation": 20,
                        "width": 260,
                        "height": 359
                    }
                },
                "cloud_1copy3": {
                    "cloud_1": {
                        "x": -151,
                        "y": 68.5,
                        "width": 260,
                        "height": 359
                    }
                },
                "cloud_2": {
                    "cloud_2": {
                        "x": -87.5,
                        "y": -266.5,
                        "width": 273,
                        "height": 192
                    }
                },
                "cloud_2 copy": {
                    "cloud_2": {
                        "x": -226.5,
                        "y": -58.5,
                        "rotation": -70,
                        "width": 273,
                        "height": 192
                    }
                },
                "cloud_2copy2": {
                    "cloud_2": {
                        "x": 239,
                        "y": -123.5,
                        "rotation": 50,
                        "width": 273,
                        "height": 192
                    }
                },
                "cloud_2copy3": {
                    "cloud_2": {
                        "x": -25,
                        "y": 211,
                        "rotation": 150,
                        "width": 273,
                        "height": 192
                    }
                },
                "cloud_2copy4": {
                    "cloud_2": {
                        "x": 2.39,
                        "y": -37.35,
                        "rotation": 110,
                        "width": 273,
                        "height": 192
                    }
                },
                "cloud_3": {
                    "cloud_3": {
                        "x": -265.5,
                        "y": -264.5,
                        "width": 169,
                        "height": 104
                    }
                },
                "cloud_3copy2": {
                    "cloud_3": {
                        "x": 186,
                        "y": -302.5,
                        "rotation": 50,
                        "width": 169,
                        "height": 104
                    }
                },
                "cloud_3copy3": {
                    "cloud_3": {
                        "x": 240,
                        "y": -291,
                        "rotation": 50,
                        "width": 169,
                        "height": 104
                    }
                },
                "cloud_3copy4": {
                    "cloud_3": {
                        "x": 136.5,
                        "y": 302,
                        "rotation": 160,
                        "width": 169,
                        "height": 104
                    }
                },
                "cloud_3copy5": {
                    "cloud_3": {
                        "x": 348,
                        "y": 88,
                        "rotation": 90,
                        "width": 169,
                        "height": 104
                    }
                },
                "cloud_4_copy": {
                    "cloud_4": {
                        "x": -59.5,
                        "y": 60,
                        "rotation": -120,
                        "width": 288,
                        "height": 234
                    }
                },
                "cloud_5": {
                    "cloud_5": {
                        "x": 42,
                        "y": 79,
                        "width": 234,
                        "height": 155
                    }
                },
                "cloud_6": {
                    "cloud_6": {
                        "x": -310.5,
                        "y": -146,
                        "width": 227,
                        "height": 167
                    }
                },
                "cloud_6copy": {
                    "cloud_6": {
                        "x": -221.5,
                        "y": 11.5,
                        "rotation": -60,
                        "width": 227,
                        "height": 167
                    }
                },
                "cloud_6copy2": {
                    "cloud_6": {
                        "x": 322.5,
                        "y": 81,
                        "rotation": 140,
                        "width": 227,
                        "height": 167
                    }
                },
                "cloud_7": {
                    "cloud_7": {
                        "x": -185.5,
                        "y": 250,
                        "width": 123,
                        "height": 209
                    }
                },
                "cloud_7copy": {
                    "cloud_7": {
                        "x": -375.5,
                        "y": -80.5,
                        "rotation": 40,
                        "width": 123,
                        "height": 209
                    }
                },
                "cloud_7copy2": {
                    "cloud_7": {
                        "x": 195,
                        "y": 193.5,
                        "rotation": -110,
                        "width": 123,
                        "height": 209
                    }
                },
                "cloud_7copy3": {
                    "cloud_7": {
                        "x": 137.5,
                        "y": -358,
                        "rotation": 120,
                        "width": 123,
                        "height": 209
                    }
                },
                "cloud_7copy4": {
                    "cloud_7": {
                        "x": -278,
                        "y": 85,
                        "rotation": 10,
                        "width": 123,
                        "height": 209
                    }
                },
                "cloud_7copy5": {
                    "cloud_7": {
                        "x": 365,
                        "y": 28.5,
                        "rotation": -160,
                        "width": 123,
                        "height": 209
                    }
                },
                "cloud_8": {
                    "cloud_8": {
                        "x": -82.5,
                        "y": 329.5,
                        "width": 81,
                        "height": 98
                    }
                },
                "cloud_8copy": {
                    "cloud_8": {
                        "x": -16,
                        "y": 383.5,
                        "rotation": -50,
                        "width": 81,
                        "height": 98
                    }
                },
                "cloud_8copy2": {
                    "cloud_8": {
                        "x": -355.5,
                        "y": -3.5,
                        "rotation": 40,
                        "width": 81,
                        "height": 98
                    }
                },
                "cloud_8copy3": {
                    "cloud_8": {
                        "x": -252.5,
                        "y": 114.5,
                        "rotation": 30,
                        "width": 81,
                        "height": 98
                    }
                },
                "cloud_8copy4": {
                    "cloud_8": {
                        "x": -5.5,
                        "y": -397.5,
                        "rotation": 130,
                        "width": 81,
                        "height": 98
                    }
                },
                "cloud_9": {
                    "cloud_9": {
                        "x": 351.5,
                        "y": -73,
                        "width": 55,
                        "height": 83
                    }
                },
                "cloud_9copy": {
                    "cloud_9": {
                        "x": -86,
                        "y": 363.5,
                        "rotation": 90,
                        "width": 55,
                        "height": 83
                    }
                },
                "cloud_9copy2": {
                    "cloud_9": {
                        "x": -400.5,
                        "y": 51,
                        "rotation": 160,
                        "width": 55,
                        "height": 83
                    }
                },
                "cloud_9copy3": {
                    "cloud_9": {
                        "x": -277,
                        "y": 205,
                        "rotation": -30,
                        "width": 55,
                        "height": 83
                    }
                },
                "cloud_9copy4": {
                    "cloud_9": {
                        "x": 367,
                        "y": 12.5,
                        "width": 55,
                        "height": 83
                    }
                },
                "cloud_9copy5": {
                    "cloud_9": {
                        "x": -60,
                        "y": -390.5,
                        "rotation": 90,
                        "width": 55,
                        "height": 83
                    }
                },
                "cloud_17": {
                    "cloud_0": {
                        "x": 4.5,
                        "y": -3,
                        "scaleX": 2,
                        "scaleY": 2,
                        "width": 262,
                        "height": 258
                    }
                },
                "electric2_00000": {
                    "electric2_00001": {
                        "width": 250,
                        "height": 250
                    },
                    "electric2_00002": {
                        "width": 250,
                        "height": 250
                    },
                    "electric2_00004": {
                        "width": 250,
                        "height": 250
                    },
                    "electric2_00006": {
                        "width": 250,
                        "height": 250
                    },
                    "electric2_00008": {
                        "width": 250,
                        "height": 250
                    },
                    "electric2_00010": {
                        "width": 250,
                        "height": 250
                    },
                    "electric2_00012": {
                        "width": 250,
                        "height": 250
                    },
                    "electric2_00014": {
                        "width": 250,
                        "height": 250
                    },
                    "electric2_00016": {
                        "width": 250,
                        "height": 250
                    },
                    "electric2_00018": {
                        "width": 250,
                        "height": 250
                    },
                    "electric2_00021": {
                        "width": 250,
                        "height": 250
                    },
                    "electric2_00025": {
                        "width": 250,
                        "height": 250
                    },
                    "electric2_00029": {
                        "width": 250,
                        "height": 250
                    }
                },
                "symbol_star": {
                    "symbol_star": {
                        "x": 4.24,
                        "y": -6.18,
                        "width": 133,
                        "height": 127
                    }
                },
                "symbol_star2": {
                    "symbol_star": {
                        "x": 2.38,
                        "y": 3.29,
                        "width": 133,
                        "height": 127
                    }
                },
                "symbol_star3": {
                    "symbol_star": {
                        "x": 6.91,
                        "y": 0.78,
                        "rotation": 60,
                        "width": 133,
                        "height": 127
                    }
                }
            }
        }
    ],
    "animations": {
        "tornado": {
            "slots": {
                "cloud4": {
                    "color": [
                        {
                            "color": "ffffff00",
                            "curve": "stepped"
                        },
                        {
                            "time": 0.2,
                            "color": "ffffff00"
                        },
                        {
                            "time": 0.8333,
                            "color": "ffffffff",
                            "curve": "stepped"
                        },
                        {
                            "time": 1.8667,
                            "color": "ffffffff"
                        },
                        {
                            "time": 2.5,
                            "color": "ffffff00"
                        }
                    ]
                },
                "cloud_0": {
                    "color": [
                        {
                            "color": "ffffff00",
                            "curve": "stepped"
                        },
                        {
                            "time": 0.1333,
                            "color": "ffffff00"
                        },
                        {
                            "time": 0.9667,
                            "color": "ffffffff",
                            "curve": "stepped"
                        },
                        {
                            "time": 1.8667,
                            "color": "ffffffff"
                        },
                        {
                            "time": 2.5,
                            "color": "ffffff00"
                        }
                    ]
                },
                "cloud_1": {
                    "color": [
                        {
                            "color": "ffffff00",
                            "curve": "stepped"
                        },
                        {
                            "time": 0.2,
                            "color": "ffffff00"
                        },
                        {
                            "time": 0.8333,
                            "color": "ffffffff",
                            "curve": "stepped"
                        },
                        {
                            "time": 1.8667,
                            "color": "ffffffff"
                        },
                        {
                            "time": 2.5,
                            "color": "ffffff00"
                        }
                    ]
                },
                "cloud_1 copy": {
                    "color": [
                        {
                            "color": "ffffff00",
                            "curve": "stepped"
                        },
                        {
                            "time": 0.3333,
                            "color": "ffffff00"
                        },
                        {
                            "time": 1.0333,
                            "color": "ffffffff",
                            "curve": "stepped"
                        },
                        {
                            "time": 1.8667,
                            "color": "ffffffff"
                        },
                        {
                            "time": 2.5,
                            "color": "ffffff00"
                        }
                    ]
                },
                "cloud_1copy2": {
                    "color": [
                        {
                            "color": "ffffff00",
                            "curve": "stepped"
                        },
                        {
                            "time": 0.1333,
                            "color": "ffffff00"
                        },
                        {
                            "time": 0.7667,
                            "color": "ffffffff",
                            "curve": "stepped"
                        },
                        {
                            "time": 1.8667,
                            "color": "ffffffff"
                        },
                        {
                            "time": 2.5,
                            "color": "ffffff00"
                        }
                    ]
                },
                "cloud_1copy3": {
                    "color": [
                        {
                            "color": "ffffff00",
                            "curve": "stepped"
                        },
                        {
                            "time": 0.2,
                            "color": "ffffff00"
                        },
                        {
                            "time": 0.8333,
                            "color": "ffffffff",
                            "curve": "stepped"
                        },
                        {
                            "time": 1.8667,
                            "color": "ffffffff"
                        },
                        {
                            "time": 2.5,
                            "color": "ffffff00"
                        }
                    ]
                },
                "cloud_2": {
                    "color": [
                        {
                            "color": "ffffff00",
                            "curve": "stepped"
                        },
                        {
                            "time": 0.1333,
                            "color": "ffffff00"
                        },
                        {
                            "time": 0.7667,
                            "color": "ffffffff",
                            "curve": "stepped"
                        },
                        {
                            "time": 1.8667,
                            "color": "ffffffff"
                        },
                        {
                            "time": 2.5,
                            "color": "ffffff00"
                        }
                    ]
                },
                "cloud_2 copy": {
                    "color": [
                        {
                            "color": "ffffff00",
                            "curve": "stepped"
                        },
                        {
                            "time": 0.2,
                            "color": "ffffff00"
                        },
                        {
                            "time": 0.8333,
                            "color": "ffffffff",
                            "curve": "stepped"
                        },
                        {
                            "time": 1.8667,
                            "color": "ffffffff"
                        },
                        {
                            "time": 2.5,
                            "color": "ffffff00"
                        }
                    ]
                },
                "cloud_2copy2": {
                    "color": [
                        {
                            "color": "ffffff00",
                            "curve": "stepped"
                        },
                        {
                            "time": 0.2,
                            "color": "ffffff00"
                        },
                        {
                            "time": 0.8333,
                            "color": "ffffffff",
                            "curve": "stepped"
                        },
                        {
                            "time": 1.8667,
                            "color": "ffffffff"
                        },
                        {
                            "time": 2.5,
                            "color": "ffffff00"
                        }
                    ]
                },
                "cloud_2copy3": {
                    "color": [
                        {
                            "color": "ffffff00",
                            "curve": "stepped"
                        },
                        {
                            "time": 0.1333,
                            "color": "ffffff00"
                        },
                        {
                            "time": 0.7667,
                            "color": "ffffffff",
                            "curve": "stepped"
                        },
                        {
                            "time": 1.8667,
                            "color": "ffffffff"
                        },
                        {
                            "time": 2.5,
                            "color": "ffffff00"
                        }
                    ]
                },
                "cloud_2copy4": {
                    "color": [
                        {
                            "color": "ffffff00",
                            "curve": "stepped"
                        },
                        {
                            "time": 0.2,
                            "color": "ffffff00"
                        },
                        {
                            "time": 0.6333,
                            "color": "ffffffff",
                            "curve": "stepped"
                        },
                        {
                            "time": 1.8667,
                            "color": "ffffffff"
                        },
                        {
                            "time": 2.5,
                            "color": "ffffff00"
                        }
                    ]
                },
                "cloud_3": {
                    "color": [
                        {
                            "color": "ffffff00",
                            "curve": "stepped"
                        },
                        {
                            "time": 0.2,
                            "color": "ffffff00"
                        },
                        {
                            "time": 0.8333,
                            "color": "ffffffff",
                            "curve": "stepped"
                        },
                        {
                            "time": 1.8667,
                            "color": "ffffffff"
                        },
                        {
                            "time": 2.5,
                            "color": "ffffff00"
                        }
                    ]
                },
                "cloud_3copy2": {
                    "color": [
                        {
                            "color": "ffffff00",
                            "curve": "stepped"
                        },
                        {
                            "time": 0.3333,
                            "color": "ffffff00"
                        },
                        {
                            "time": 1.0333,
                            "color": "ffffffff",
                            "curve": "stepped"
                        },
                        {
                            "time": 1.8667,
                            "color": "ffffffff"
                        },
                        {
                            "time": 2.5,
                            "color": "ffffff00"
                        }
                    ]
                },
                "cloud_3copy3": {
                    "color": [
                        {
                            "color": "ffffff00",
                            "curve": "stepped"
                        },
                        {
                            "time": 0.1333,
                            "color": "ffffff00"
                        },
                        {
                            "time": 0.7667,
                            "color": "ffffffff",
                            "curve": "stepped"
                        },
                        {
                            "time": 1.8667,
                            "color": "ffffffff"
                        },
                        {
                            "time": 2.5,
                            "color": "ffffff00"
                        }
                    ]
                },
                "cloud_3copy4": {
                    "color": [
                        {
                            "color": "ffffff00",
                            "curve": "stepped"
                        },
                        {
                            "time": 0.3333,
                            "color": "ffffff00"
                        },
                        {
                            "time": 1.0333,
                            "color": "ffffffff",
                            "curve": "stepped"
                        },
                        {
                            "time": 1.8667,
                            "color": "ffffffff"
                        },
                        {
                            "time": 2.5,
                            "color": "ffffff00"
                        }
                    ]
                },
                "cloud_3copy5": {
                    "color": [
                        {
                            "color": "ffffff00",
                            "curve": "stepped"
                        },
                        {
                            "time": 0.2,
                            "color": "ffffff00"
                        },
                        {
                            "time": 0.8333,
                            "color": "ffffffff",
                            "curve": "stepped"
                        },
                        {
                            "time": 1.8667,
                            "color": "ffffffff"
                        },
                        {
                            "time": 2.5,
                            "color": "ffffff00"
                        }
                    ]
                },
                "cloud_4_copy": {
                    "color": [
                        {
                            "color": "ffffff00",
                            "curve": "stepped"
                        },
                        {
                            "time": 0.2,
                            "color": "ffffff00"
                        },
                        {
                            "time": 0.8333,
                            "color": "ffffffff",
                            "curve": "stepped"
                        },
                        {
                            "time": 1.8667,
                            "color": "ffffffff"
                        },
                        {
                            "time": 2.5,
                            "color": "ffffff00"
                        }
                    ]
                },
                "cloud_5": {
                    "color": [
                        {
                            "color": "ffffff00",
                            "curve": "stepped"
                        },
                        {
                            "time": 0.2,
                            "color": "ffffff00"
                        },
                        {
                            "time": 0.8333,
                            "color": "ffffffff",
                            "curve": "stepped"
                        },
                        {
                            "time": 1.8667,
                            "color": "ffffffff"
                        },
                        {
                            "time": 2.5,
                            "color": "ffffff00"
                        }
                    ]
                },
                "cloud_6": {
                    "color": [
                        {
                            "color": "ffffff00",
                            "curve": "stepped"
                        },
                        {
                            "time": 0.2,
                            "color": "ffffff00"
                        },
                        {
                            "time": 0.8333,
                            "color": "ffffffff",
                            "curve": "stepped"
                        },
                        {
                            "time": 1.8667,
                            "color": "ffffffff"
                        },
                        {
                            "time": 2.5,
                            "color": "ffffff00"
                        }
                    ]
                },
                "cloud_6copy": {
                    "color": [
                        {
                            "color": "ffffff00",
                            "curve": "stepped"
                        },
                        {
                            "time": 0.3333,
                            "color": "ffffff00"
                        },
                        {
                            "time": 1.0333,
                            "color": "ffffffff",
                            "curve": "stepped"
                        },
                        {
                            "time": 1.8667,
                            "color": "ffffffff"
                        },
                        {
                            "time": 2.5,
                            "color": "ffffff00"
                        }
                    ]
                },
                "cloud_6copy2": {
                    "color": [
                        {
                            "color": "ffffff00",
                            "curve": "stepped"
                        },
                        {
                            "time": 0.3333,
                            "color": "ffffff00"
                        },
                        {
                            "time": 1.0333,
                            "color": "ffffffff",
                            "curve": "stepped"
                        },
                        {
                            "time": 1.8667,
                            "color": "ffffffff"
                        },
                        {
                            "time": 2.5,
                            "color": "ffffff00"
                        }
                    ]
                },
                "cloud_7": {
                    "color": [
                        {
                            "color": "ffffff00",
                            "curve": "stepped"
                        },
                        {
                            "time": 0.2,
                            "color": "ffffff00"
                        },
                        {
                            "time": 0.8333,
                            "color": "ffffffff",
                            "curve": "stepped"
                        },
                        {
                            "time": 1.8667,
                            "color": "ffffffff"
                        },
                        {
                            "time": 2.5,
                            "color": "ffffff00"
                        }
                    ]
                },
                "cloud_7copy": {
                    "color": [
                        {
                            "color": "ffffff00",
                            "curve": "stepped"
                        },
                        {
                            "time": 0.1333,
                            "color": "ffffff00"
                        },
                        {
                            "time": 0.7667,
                            "color": "ffffffff",
                            "curve": "stepped"
                        },
                        {
                            "time": 1.8667,
                            "color": "ffffffff"
                        },
                        {
                            "time": 2.5,
                            "color": "ffffff00"
                        }
                    ]
                },
                "cloud_7copy2": {
                    "color": [
                        {
                            "color": "ffffff00",
                            "curve": "stepped"
                        },
                        {
                            "time": 0.2,
                            "color": "ffffff00"
                        },
                        {
                            "time": 0.8333,
                            "color": "ffffffff",
                            "curve": "stepped"
                        },
                        {
                            "time": 1.8667,
                            "color": "ffffffff"
                        },
                        {
                            "time": 2.5,
                            "color": "ffffff00"
                        }
                    ]
                },
                "cloud_7copy3": {
                    "color": [
                        {
                            "color": "ffffff00",
                            "curve": "stepped"
                        },
                        {
                            "time": 0.2,
                            "color": "ffffff00"
                        },
                        {
                            "time": 0.8333,
                            "color": "ffffffff",
                            "curve": "stepped"
                        },
                        {
                            "time": 1.8667,
                            "color": "ffffffff"
                        },
                        {
                            "time": 2.5,
                            "color": "ffffff00"
                        }
                    ]
                },
                "cloud_7copy4": {
                    "color": [
                        {
                            "color": "ffffff00",
                            "curve": "stepped"
                        },
                        {
                            "time": 0.2,
                            "color": "ffffff00"
                        },
                        {
                            "time": 0.8333,
                            "color": "ffffffff",
                            "curve": "stepped"
                        },
                        {
                            "time": 1.8667,
                            "color": "ffffffff"
                        },
                        {
                            "time": 2.5,
                            "color": "ffffff00"
                        }
                    ]
                },
                "cloud_7copy5": {
                    "color": [
                        {
                            "color": "ffffff00",
                            "curve": "stepped"
                        },
                        {
                            "time": 0.2,
                            "color": "ffffff00"
                        },
                        {
                            "time": 0.8333,
                            "color": "ffffffff",
                            "curve": "stepped"
                        },
                        {
                            "time": 1.8667,
                            "color": "ffffffff"
                        },
                        {
                            "time": 2.5,
                            "color": "ffffff00"
                        }
                    ]
                },
                "cloud_8": {
                    "color": [
                        {
                            "color": "ffffff00",
                            "curve": "stepped"
                        },
                        {
                            "time": 0.3333,
                            "color": "ffffff00"
                        },
                        {
                            "time": 1.0333,
                            "color": "ffffffff",
                            "curve": "stepped"
                        },
                        {
                            "time": 1.8667,
                            "color": "ffffffff"
                        },
                        {
                            "time": 2.5,
                            "color": "ffffff00"
                        }
                    ]
                },
                "cloud_8copy": {
                    "color": [
                        {
                            "color": "ffffff00",
                            "curve": "stepped"
                        },
                        {
                            "time": 0.2,
                            "color": "ffffff00"
                        },
                        {
                            "time": 0.8333,
                            "color": "ffffffff",
                            "curve": "stepped"
                        },
                        {
                            "time": 1.8667,
                            "color": "ffffffff"
                        },
                        {
                            "time": 2.5,
                            "color": "ffffff00"
                        }
                    ]
                },
                "cloud_8copy2": {
                    "color": [
                        {
                            "color": "ffffff00",
                            "curve": "stepped"
                        },
                        {
                            "time": 0.2,
                            "color": "ffffff00"
                        },
                        {
                            "time": 0.8333,
                            "color": "ffffffff",
                            "curve": "stepped"
                        },
                        {
                            "time": 1.8667,
                            "color": "ffffffff"
                        },
                        {
                            "time": 2.5,
                            "color": "ffffff00"
                        }
                    ]
                },
                "cloud_8copy3": {
                    "color": [
                        {
                            "color": "ffffff00",
                            "curve": "stepped"
                        },
                        {
                            "time": 0.1333,
                            "color": "ffffff00"
                        },
                        {
                            "time": 0.7667,
                            "color": "ffffffff",
                            "curve": "stepped"
                        },
                        {
                            "time": 1.8667,
                            "color": "ffffffff"
                        },
                        {
                            "time": 2.5,
                            "color": "ffffff00"
                        }
                    ]
                },
                "cloud_8copy4": {
                    "color": [
                        {
                            "color": "ffffff00",
                            "curve": "stepped"
                        },
                        {
                            "time": 0.2,
                            "color": "ffffff00"
                        },
                        {
                            "time": 0.8333,
                            "color": "ffffffff",
                            "curve": "stepped"
                        },
                        {
                            "time": 1.8667,
                            "color": "ffffffff"
                        },
                        {
                            "time": 2.5,
                            "color": "ffffff00"
                        }
                    ]
                },
                "cloud_9": {
                    "color": [
                        {
                            "color": "ffffff00",
                            "curve": "stepped"
                        },
                        {
                            "time": 0.2,
                            "color": "ffffff00"
                        },
                        {
                            "time": 0.8333,
                            "color": "ffffffff",
                            "curve": "stepped"
                        },
                        {
                            "time": 1.8667,
                            "color": "ffffffff"
                        },
                        {
                            "time": 2.5,
                            "color": "ffffff00"
                        }
                    ]
                },
                "cloud_9copy": {
                    "color": [
                        {
                            "color": "ffffff00",
                            "curve": "stepped"
                        },
                        {
                            "time": 0.2,
                            "color": "ffffff00"
                        },
                        {
                            "time": 0.8333,
                            "color": "ffffffff",
                            "curve": "stepped"
                        },
                        {
                            "time": 1.8667,
                            "color": "ffffffff"
                        },
                        {
                            "time": 2.5,
                            "color": "ffffff00"
                        }
                    ]
                },
                "cloud_9copy2": {
                    "color": [
                        {
                            "color": "ffffff00",
                            "curve": "stepped"
                        },
                        {
                            "time": 0.3333,
                            "color": "ffffff00"
                        },
                        {
                            "time": 1.0333,
                            "color": "ffffffff",
                            "curve": "stepped"
                        },
                        {
                            "time": 1.8667,
                            "color": "ffffffff"
                        },
                        {
                            "time": 2.5,
                            "color": "ffffff00"
                        }
                    ]
                },
                "cloud_9copy3": {
                    "color": [
                        {
                            "color": "ffffff00",
                            "curve": "stepped"
                        },
                        {
                            "time": 0.2,
                            "color": "ffffff00"
                        },
                        {
                            "time": 0.8333,
                            "color": "ffffffff",
                            "curve": "stepped"
                        },
                        {
                            "time": 1.8667,
                            "color": "ffffffff"
                        },
                        {
                            "time": 2.5,
                            "color": "ffffff00"
                        }
                    ]
                },
                "cloud_9copy4": {
                    "color": [
                        {
                            "color": "ffffff00",
                            "curve": "stepped"
                        },
                        {
                            "time": 0.1333,
                            "color": "ffffff00"
                        },
                        {
                            "time": 0.7667,
                            "color": "ffffffff",
                            "curve": "stepped"
                        },
                        {
                            "time": 1.8667,
                            "color": "ffffffff"
                        },
                        {
                            "time": 2.5,
                            "color": "ffffff00"
                        }
                    ]
                },
                "cloud_9copy5": {
                    "color": [
                        {
                            "color": "ffffff00",
                            "curve": "stepped"
                        },
                        {
                            "time": 0.2,
                            "color": "ffffff00"
                        },
                        {
                            "time": 0.8333,
                            "color": "ffffffff",
                            "curve": "stepped"
                        },
                        {
                            "time": 1.8667,
                            "color": "ffffffff"
                        },
                        {
                            "time": 2.5,
                            "color": "ffffff00"
                        }
                    ]
                },
                "cloud_17": {
                    "color": [
                        {
                            "color": "ffffff00"
                        },
                        {
                            "time": 0.8333,
                            "color": "ffffffff",
                            "curve": "stepped"
                        },
                        {
                            "time": 1.8667,
                            "color": "ffffffff"
                        },
                        {
                            "time": 2.5,
                            "color": "ffffff00"
                        }
                    ]
                },
                "electric2_00000": {
                    "color": [
                        {
                            "color": "ffffff00"
                        },
                        {
                            "time": 0.6333,
                            "color": "ffffffff"
                        }
                    ],
                    "attachment": [
                        {
                            "time": 0.6667,
                            "name": "electric2_00001"
                        },
                        {
                            "time": 0.7,
                            "name": "electric2_00002"
                        },
                        {
                            "time": 0.8,
                            "name": "electric2_00004"
                        },
                        {
                            "time": 0.8333,
                            "name": null
                        },
                        {
                            "time": 0.8667,
                            "name": "electric2_00006"
                        },
                        {
                            "time": 0.9667,
                            "name": "electric2_00008"
                        },
                        {
                            "time": 1,
                            "name": null
                        },
                        {
                            "time": 1.0333,
                            "name": "electric2_00010"
                        },
                        {
                            "time": 1.1,
                            "name": null
                        },
                        {
                            "time": 1.1333,
                            "name": "electric2_00012"
                        },
                        {
                            "time": 1.1667,
                            "name": null
                        },
                        {
                            "time": 1.2,
                            "name": "electric2_00014"
                        },
                        {
                            "time": 1.2667,
                            "name": null
                        },
                        {
                            "time": 1.3,
                            "name": "electric2_00016"
                        },
                        {
                            "time": 1.3333,
                            "name": null
                        },
                        {
                            "time": 1.3667,
                            "name": "electric2_00018"
                        },
                        {
                            "time": 1.4333,
                            "name": null
                        },
                        {
                            "time": 1.5,
                            "name": "electric2_00021"
                        },
                        {
                            "time": 1.5333,
                            "name": null
                        },
                        {
                            "time": 1.6667,
                            "name": "electric2_00025"
                        },
                        {
                            "time": 1.7,
                            "name": null
                        },
                        {
                            "time": 1.8333,
                            "name": "electric2_00029"
                        },
                        {
                            "time": 1.8667,
                            "name": null
                        }
                    ]
                },
                "symbol_star": {
                    "color": [
                        {
                            "color": "ffffff00",
                            "curve": "stepped"
                        },
                        {
                            "time": 0.4667,
                            "color": "ffffff00"
                        },
                        {
                            "time": 0.8333,
                            "color": "ffffffff",
                            "curve": "stepped"
                        },
                        {
                            "time": 2.1333,
                            "color": "ffffffff"
                        },
                        {
                            "time": 2.5,
                            "color": "ffffff00"
                        }
                    ]
                },
                "symbol_star2": {
                    "color": [
                        {
                            "color": "ffffff00"
                        },
                        {
                            "time": 0.6333,
                            "color": "ffffffff",
                            "curve": "stepped"
                        },
                        {
                            "time": 2.1333,
                            "color": "ffffffff"
                        },
                        {
                            "time": 2.5,
                            "color": "ffffff00"
                        }
                    ]
                },
                "symbol_star3": {
                    "color": [
                        {
                            "color": "ffffff00",
                            "curve": "stepped"
                        },
                        {
                            "time": 0.2,
                            "color": "ffffff00"
                        },
                        {
                            "time": 0.6333,
                            "color": "ffffffff",
                            "curve": "stepped"
                        },
                        {
                            "time": 2.1333,
                            "color": "ffffffff"
                        },
                        {
                            "time": 2.5,
                            "color": "ffffff00"
                        }
                    ]
                }
            },
            "bones": {
                "3group": {
                    "rotate": [
                        {},
                        {
                            "time": 2.5,
                            "angle": -70
                        }
                    ],
                    "scale": [
                        {},
                        {
                            "time": 2.5,
                            "x": 1.4,
                            "y": 1.4
                        }
                    ]
                },
                "5group": {
                    "rotate": [
                        {},
                        {
                            "time": 2.5,
                            "angle": -90
                        }
                    ],
                    "scale": [
                        {},
                        {
                            "time": 2.5,
                            "x": 1.6,
                            "y": 1.6
                        }
                    ]
                },
                "4group": {
                    "rotate": [
                        {},
                        {
                            "time": 2.5,
                            "angle": -80
                        }
                    ]
                },
                "2group": {
                    "rotate": [
                        {},
                        {
                            "time": 2.5,
                            "angle": -60
                        }
                    ],
                    "scale": [
                        {
                            "x": 0.9,
                            "y": 0.9
                        },
                        {
                            "time": 2.5,
                            "x": 1.05,
                            "y": 1.05
                        }
                    ]
                },
                "1group": {
                    "rotate": [
                        {},
                        {
                            "time": 2.5,
                            "angle": -50
                        }
                    ]
                },
                "symbol_star2": {
                    "rotate": [
                        {},
                        {
                            "time": 2.5,
                            "angle": -90
                        }
                    ],
                    "translate": [
                        {
                            "x": -123.12,
                            "y": -24.71
                        },
                        {
                            "time": 2.5,
                            "x": 121.17,
                            "y": 14.42
                        }
                    ]
                },
                "symbol_star3": {
                    "rotate": [
                        {
                            "time": 0.2
                        },
                        {
                            "time": 2.5,
                            "angle": -90
                        }
                    ],
                    "translate": [
                        {
                            "x": 14.41,
                            "y": 89.28,
                            "curve": "stepped"
                        },
                        {
                            "time": 0.2,
                            "x": 14.41,
                            "y": 89.28
                        },
                        {
                            "time": 2.5,
                            "x": -184.16,
                            "y": 44.75
                        }
                    ]
                },
                "symbol_star": {
                    "rotate": [
                        {
                            "time": 0.4667
                        },
                        {
                            "time": 2.5,
                            "angle": -80
                        }
                    ],
                    "translate": [
                        {
                            "x": 145.74,
                            "y": -84.18,
                            "curve": "stepped"
                        },
                        {
                            "time": 0.4667,
                            "x": 145.74,
                            "y": -84.18
                        },
                        {
                            "time": 2.5,
                            "x": 79.61,
                            "y": 126.57
                        }
                    ]
                },
                "center": {
                    "rotate": [
                        {},
                        {
                            "time": 2.5,
                            "angle": -30
                        }
                    ],
                    "scale": [
                        {},
                        {
                            "time": 2.5,
                            "x": 1.5,
                            "y": 1.5
                        }
                    ]
                },
                "center2": {
                    "rotate": [
                        {
                            "angle": 30
                        },
                        {
                            "time": 2.5
                        }
                    ]
                },
                "ctrl": {
                    "rotate": [
                        {
                            "angle": 50,
                            "curve": 0.25,
                            "c3": 0.84,
                            "c4": 0.79
                        },
                        {
                            "time": 1.2667,
                            "angle": -50,
                            "curve": 0.168,
                            "c2": 0.22,
                            "c3": 0.75
                        },
                        {
                            "time": 2.5,
                            "angle": -150
                        }
                    ],
                    "scale": [
                        {
                            "x": 0.5,
                            "y": 0.5,
                            "curve": 0.351,
                            "c3": 0.644,
                            "c4": 0.99
                        },
                        {
                            "time": 2.5,
                            "x": 1.5,
                            "y": 1.5
                        }
                    ]
                },
                "cloud_2copy4": {
                    "translate": [
                        {},
                        {
                            "time": 2.5,
                            "x": 22.15,
                            "y": 119.58
                        }
                    ]
                }
            }
        }
    }
}
