{"frames": {

"BetBar-auto/down":
{
	"frame": {"x":1330,"y":415,"w":124,"h":124},
	"rotated": false,
	"trimmed": false,
	"spriteSourceSize": {"x":0,"y":0,"w":124,"h":124},
	"sourceSize": {"w":124,"h":124}
},
"BetBar-auto/off":
{
	"frame": {"x":1455,"y":415,"w":124,"h":124},
	"rotated": false,
	"trimmed": false,
	"spriteSourceSize": {"x":0,"y":0,"w":124,"h":124},
	"sourceSize": {"w":124,"h":124}
},
"BetBar-auto/over":
{
	"frame": {"x":1580,"y":415,"w":124,"h":124},
	"rotated": false,
	"trimmed": false,
	"spriteSourceSize": {"x":0,"y":0,"w":124,"h":124},
	"sourceSize": {"w":124,"h":124}
},
"BetBar-auto/up":
{
	"frame": {"x":1705,"y":415,"w":124,"h":124},
	"rotated": false,
	"trimmed": false,
	"spriteSourceSize": {"x":0,"y":0,"w":124,"h":124},
	"sourceSize": {"w":124,"h":124}
},
"BetBar-bet/down":
{
	"frame": {"x":1830,"y":415,"w":124,"h":124},
	"rotated": false,
	"trimmed": false,
	"spriteSourceSize": {"x":0,"y":0,"w":124,"h":124},
	"sourceSize": {"w":124,"h":124}
},
"BetBar-bet/off":
{
	"frame": {"x":1334,"y":540,"w":124,"h":124},
	"rotated": false,
	"trimmed": false,
	"spriteSourceSize": {"x":0,"y":0,"w":124,"h":124},
	"sourceSize": {"w":124,"h":124}
},
"BetBar-bet/over":
{
	"frame": {"x":1459,"y":540,"w":124,"h":124},
	"rotated": false,
	"trimmed": false,
	"spriteSourceSize": {"x":0,"y":0,"w":124,"h":124},
	"sourceSize": {"w":124,"h":124}
},
"BetBar-bet/up":
{
	"frame": {"x":1584,"y":540,"w":124,"h":124},
	"rotated": false,
	"trimmed": false,
	"spriteSourceSize": {"x":0,"y":0,"w":124,"h":124},
	"sourceSize": {"w":124,"h":124}
},
"BetBar-feature/down":
{
	"frame": {"x":1531,"y":121,"w":195,"h":188},
	"rotated": false,
	"trimmed": false,
	"spriteSourceSize": {"x":0,"y":0,"w":195,"h":188},
	"sourceSize": {"w":195,"h":188}
},
"BetBar-feature/off":
{
	"frame": {"x":1727,"y":121,"w":195,"h":188},
	"rotated": false,
	"trimmed": false,
	"spriteSourceSize": {"x":0,"y":0,"w":195,"h":188},
	"sourceSize": {"w":195,"h":188}
},
"BetBar-feature/over":
{
	"frame": {"x":262,"y":480,"w":195,"h":188},
	"rotated": false,
	"trimmed": false,
	"spriteSourceSize": {"x":0,"y":0,"w":195,"h":188},
	"sourceSize": {"w":195,"h":188}
},
"BetBar-feature/up":
{
	"frame": {"x":262,"y":669,"w":195,"h":188},
	"rotated": false,
	"trimmed": false,
	"spriteSourceSize": {"x":0,"y":0,"w":195,"h":188},
	"sourceSize": {"w":195,"h":188}
},
"BetBar-settings/down":
{
	"frame": {"x":1709,"y":540,"w":124,"h":124},
	"rotated": false,
	"trimmed": false,
	"spriteSourceSize": {"x":0,"y":0,"w":124,"h":124},
	"sourceSize": {"w":124,"h":124}
},
"BetBar-settings/off":
{
	"frame": {"x":1834,"y":540,"w":124,"h":124},
	"rotated": false,
	"trimmed": false,
	"spriteSourceSize": {"x":0,"y":0,"w":124,"h":124},
	"sourceSize": {"w":124,"h":124}
},
"BetBar-settings/over":
{
	"frame": {"x":1013,"y":730,"w":124,"h":124},
	"rotated": false,
	"trimmed": false,
	"spriteSourceSize": {"x":0,"y":0,"w":124,"h":124},
	"sourceSize": {"w":124,"h":124}
},
"BetBar-settings/up":
{
	"frame": {"x":1138,"y":747,"w":124,"h":124},
	"rotated": false,
	"trimmed": false,
	"spriteSourceSize": {"x":0,"y":0,"w":124,"h":124},
	"sourceSize": {"w":124,"h":124}
},
"BetBar-sound/down":
{
	"frame": {"x":1263,"y":750,"w":124,"h":124},
	"rotated": false,
	"trimmed": false,
	"spriteSourceSize": {"x":0,"y":0,"w":124,"h":124},
	"sourceSize": {"w":124,"h":124}
},
"BetBar-sound/off":
{
	"frame": {"x":1388,"y":750,"w":124,"h":124},
	"rotated": false,
	"trimmed": false,
	"spriteSourceSize": {"x":0,"y":0,"w":124,"h":124},
	"sourceSize": {"w":124,"h":124}
},
"BetBar-sound/over":
{
	"frame": {"x":1513,"y":750,"w":124,"h":124},
	"rotated": false,
	"trimmed": false,
	"spriteSourceSize": {"x":0,"y":0,"w":124,"h":124},
	"sourceSize": {"w":124,"h":124}
},
"BetBar-sound/select_down":
{
	"frame": {"x":1638,"y":750,"w":124,"h":124},
	"rotated": false,
	"trimmed": false,
	"spriteSourceSize": {"x":0,"y":0,"w":124,"h":124},
	"sourceSize": {"w":124,"h":124}
},
"BetBar-sound/select_off":
{
	"frame": {"x":1763,"y":750,"w":124,"h":124},
	"rotated": false,
	"trimmed": false,
	"spriteSourceSize": {"x":0,"y":0,"w":124,"h":124},
	"sourceSize": {"w":124,"h":124}
},
"BetBar-sound/select_over":
{
	"frame": {"x":1888,"y":750,"w":124,"h":124},
	"rotated": false,
	"trimmed": false,
	"spriteSourceSize": {"x":0,"y":0,"w":124,"h":124},
	"sourceSize": {"w":124,"h":124}
},
"BetBar-sound/select_up":
{
	"frame": {"x":628,"y":895,"w":124,"h":124},
	"rotated": false,
	"trimmed": false,
	"spriteSourceSize": {"x":0,"y":0,"w":124,"h":124},
	"sourceSize": {"w":124,"h":124}
},
"BetBar-sound/up":
{
	"frame": {"x":753,"y":905,"w":124,"h":124},
	"rotated": false,
	"trimmed": false,
	"spriteSourceSize": {"x":0,"y":0,"w":124,"h":124},
	"sourceSize": {"w":124,"h":124}
},
"BetBar-spin/down":
{
	"frame": {"x":1346,"y":125,"w":184,"h":184},
	"rotated": false,
	"trimmed": false,
	"spriteSourceSize": {"x":0,"y":0,"w":184,"h":184},
	"sourceSize": {"w":184,"h":184}
},
"BetBar-spin/off":
{
	"frame": {"x":484,"y":375,"w":184,"h":184},
	"rotated": false,
	"trimmed": false,
	"spriteSourceSize": {"x":0,"y":0,"w":184,"h":184},
	"sourceSize": {"w":184,"h":184}
},
"BetBar-spin/over":
{
	"frame": {"x":669,"y":375,"w":184,"h":184},
	"rotated": false,
	"trimmed": false,
	"spriteSourceSize": {"x":0,"y":0,"w":184,"h":184},
	"sourceSize": {"w":184,"h":184}
},
"BetBar-spin/up":
{
	"frame": {"x":854,"y":375,"w":184,"h":184},
	"rotated": false,
	"trimmed": false,
	"spriteSourceSize": {"x":0,"y":0,"w":184,"h":184},
	"sourceSize": {"w":184,"h":184}
},
"BetBar-stop/down":
{
	"frame": {"x":1039,"y":375,"w":184,"h":184},
	"rotated": false,
	"trimmed": false,
	"spriteSourceSize": {"x":0,"y":0,"w":184,"h":184},
	"sourceSize": {"w":184,"h":184}
},
"BetBar-stop/off":
{
	"frame": {"x":458,"y":560,"w":184,"h":184},
	"rotated": false,
	"trimmed": false,
	"spriteSourceSize": {"x":0,"y":0,"w":184,"h":184},
	"sourceSize": {"w":184,"h":184}
},
"BetBar-stop/over":
{
	"frame": {"x":643,"y":560,"w":184,"h":184},
	"rotated": false,
	"trimmed": false,
	"spriteSourceSize": {"x":0,"y":0,"w":184,"h":184},
	"sourceSize": {"w":184,"h":184}
},
"BetBar-stop/up":
{
	"frame": {"x":828,"y":560,"w":184,"h":184},
	"rotated": false,
	"trimmed": false,
	"spriteSourceSize": {"x":0,"y":0,"w":184,"h":184},
	"sourceSize": {"w":184,"h":184}
},
"BetBar-stopAuto/down":
{
	"frame": {"x":1039,"y":375,"w":184,"h":184},
	"rotated": false,
	"trimmed": false,
	"spriteSourceSize": {"x":0,"y":0,"w":184,"h":184},
	"sourceSize": {"w":184,"h":184}
},
"BetBar-stopAuto/off":
{
	"frame": {"x":458,"y":560,"w":184,"h":184},
	"rotated": false,
	"trimmed": false,
	"spriteSourceSize": {"x":0,"y":0,"w":184,"h":184},
	"sourceSize": {"w":184,"h":184}
},
"BetBar-stopAuto/over":
{
	"frame": {"x":643,"y":560,"w":184,"h":184},
	"rotated": false,
	"trimmed": false,
	"spriteSourceSize": {"x":0,"y":0,"w":184,"h":184},
	"sourceSize": {"w":184,"h":184}
},
"BetBar-stopAuto/up":
{
	"frame": {"x":828,"y":560,"w":184,"h":184},
	"rotated": false,
	"trimmed": false,
	"spriteSourceSize": {"x":0,"y":0,"w":184,"h":184},
	"sourceSize": {"w":184,"h":184}
},
"MenusContent-betAmount/down":
{
	"frame": {"x":0,"y":1051,"w":231,"h":104},
	"rotated": false,
	"trimmed": false,
	"spriteSourceSize": {"x":0,"y":0,"w":231,"h":104},
	"sourceSize": {"w":231,"h":104}
},
"MenusContent-betAmount/off":
{
	"frame": {"x":232,"y":1051,"w":231,"h":104},
	"rotated": false,
	"trimmed": false,
	"spriteSourceSize": {"x":0,"y":0,"w":231,"h":104},
	"sourceSize": {"w":231,"h":104}
},
"MenusContent-betAmount/over":
{
	"frame": {"x":1801,"y":0,"w":231,"h":104},
	"rotated": false,
	"trimmed": false,
	"spriteSourceSize": {"x":0,"y":0,"w":231,"h":104},
	"sourceSize": {"w":231,"h":104}
},
"MenusContent-betAmount/select_down":
{
	"frame": {"x":0,"y":386,"w":261,"h":134},
	"rotated": false,
	"trimmed": false,
	"spriteSourceSize": {"x":0,"y":0,"w":261,"h":134},
	"sourceSize": {"w":261,"h":134}
},
"MenusContent-betAmount/select_off":
{
	"frame": {"x":0,"y":521,"w":261,"h":134},
	"rotated": false,
	"trimmed": false,
	"spriteSourceSize": {"x":0,"y":0,"w":261,"h":134},
	"sourceSize": {"w":261,"h":134}
},
"MenusContent-betAmount/select_over":
{
	"frame": {"x":0,"y":656,"w":261,"h":134},
	"rotated": false,
	"trimmed": false,
	"spriteSourceSize": {"x":0,"y":0,"w":261,"h":134},
	"sourceSize": {"w":261,"h":134}
},
"MenusContent-betAmount/select_up":
{
	"frame": {"x":0,"y":791,"w":261,"h":134},
	"rotated": false,
	"trimmed": false,
	"spriteSourceSize": {"x":0,"y":0,"w":261,"h":134},
	"sourceSize": {"w":261,"h":134}
},
"MenusContent-betAmount/up":
{
	"frame": {"x":464,"y":1051,"w":231,"h":104},
	"rotated": false,
	"trimmed": false,
	"spriteSourceSize": {"x":0,"y":0,"w":231,"h":104},
	"sourceSize": {"w":231,"h":104}
},
"MenusContent-clear/down":
{
	"frame": {"x":0,"y":926,"w":260,"h":124},
	"rotated": false,
	"trimmed": false,
	"spriteSourceSize": {"x":0,"y":0,"w":260,"h":124},
	"sourceSize": {"w":260,"h":124}
},
"MenusContent-clear/off":
{
	"frame": {"x":261,"y":926,"w":260,"h":124},
	"rotated": false,
	"trimmed": false,
	"spriteSourceSize": {"x":0,"y":0,"w":260,"h":124},
	"sourceSize": {"w":260,"h":124}
},
"MenusContent-clear/over":
{
	"frame": {"x":302,"y":125,"w":260,"h":124},
	"rotated": false,
	"trimmed": false,
	"spriteSourceSize": {"x":0,"y":0,"w":260,"h":124},
	"sourceSize": {"w":260,"h":124}
},
"MenusContent-clear/up":
{
	"frame": {"x":563,"y":125,"w":260,"h":124},
	"rotated": false,
	"trimmed": false,
	"spriteSourceSize": {"x":0,"y":0,"w":260,"h":124},
	"sourceSize": {"w":260,"h":124}
},
"MenusContent-history/down":
{
	"frame": {"x":302,"y":0,"w":304,"h":124},
	"rotated": false,
	"trimmed": false,
	"spriteSourceSize": {"x":0,"y":0,"w":304,"h":124},
	"sourceSize": {"w":304,"h":124}
},
"MenusContent-history/off":
{
	"frame": {"x":607,"y":0,"w":304,"h":124},
	"rotated": false,
	"trimmed": false,
	"spriteSourceSize": {"x":0,"y":0,"w":304,"h":124},
	"sourceSize": {"w":304,"h":124}
},
"MenusContent-history/over":
{
	"frame": {"x":912,"y":0,"w":304,"h":124},
	"rotated": false,
	"trimmed": false,
	"spriteSourceSize": {"x":0,"y":0,"w":304,"h":124},
	"sourceSize": {"w":304,"h":124}
},
"MenusContent-history/up":
{
	"frame": {"x":1217,"y":0,"w":304,"h":124},
	"rotated": false,
	"trimmed": false,
	"spriteSourceSize": {"x":0,"y":0,"w":304,"h":124},
	"sourceSize": {"w":304,"h":124}
},
"MenusContent-lossAmount/down":
{
	"frame": {"x":0,"y":1051,"w":231,"h":104},
	"rotated": false,
	"trimmed": false,
	"spriteSourceSize": {"x":0,"y":0,"w":231,"h":104},
	"sourceSize": {"w":231,"h":104}
},
"MenusContent-lossAmount/off":
{
	"frame": {"x":232,"y":1051,"w":231,"h":104},
	"rotated": false,
	"trimmed": false,
	"spriteSourceSize": {"x":0,"y":0,"w":231,"h":104},
	"sourceSize": {"w":231,"h":104}
},
"MenusContent-lossAmount/over":
{
	"frame": {"x":1801,"y":0,"w":231,"h":104},
	"rotated": false,
	"trimmed": false,
	"spriteSourceSize": {"x":0,"y":0,"w":231,"h":104},
	"sourceSize": {"w":231,"h":104}
},
"MenusContent-lossAmount/select_down":
{
	"frame": {"x":0,"y":386,"w":261,"h":134},
	"rotated": false,
	"trimmed": false,
	"spriteSourceSize": {"x":0,"y":0,"w":261,"h":134},
	"sourceSize": {"w":261,"h":134}
},
"MenusContent-lossAmount/select_off":
{
	"frame": {"x":0,"y":521,"w":261,"h":134},
	"rotated": false,
	"trimmed": false,
	"spriteSourceSize": {"x":0,"y":0,"w":261,"h":134},
	"sourceSize": {"w":261,"h":134}
},
"MenusContent-lossAmount/select_over":
{
	"frame": {"x":0,"y":656,"w":261,"h":134},
	"rotated": false,
	"trimmed": false,
	"spriteSourceSize": {"x":0,"y":0,"w":261,"h":134},
	"sourceSize": {"w":261,"h":134}
},
"MenusContent-lossAmount/select_up":
{
	"frame": {"x":0,"y":791,"w":261,"h":134},
	"rotated": false,
	"trimmed": false,
	"spriteSourceSize": {"x":0,"y":0,"w":261,"h":134},
	"sourceSize": {"w":261,"h":134}
},
"MenusContent-lossAmount/up":
{
	"frame": {"x":464,"y":1051,"w":231,"h":104},
	"rotated": false,
	"trimmed": false,
	"spriteSourceSize": {"x":0,"y":0,"w":231,"h":104},
	"sourceSize": {"w":231,"h":104}
},
"MenusContent-music/down":
{
	"frame": {"x":818,"y":820,"w":135,"h":84},
	"rotated": false,
	"trimmed": false,
	"spriteSourceSize": {"x":0,"y":0,"w":135,"h":84},
	"sourceSize": {"w":135,"h":84}
},
"MenusContent-music/off":
{
	"frame": {"x":1198,"y":577,"w":135,"h":84},
	"rotated": false,
	"trimmed": false,
	"spriteSourceSize": {"x":0,"y":0,"w":135,"h":84},
	"sourceSize": {"w":135,"h":84}
},
"MenusContent-music/over":
{
	"frame": {"x":1188,"y":662,"w":135,"h":84},
	"rotated": false,
	"trimmed": false,
	"spriteSourceSize": {"x":0,"y":0,"w":135,"h":84},
	"sourceSize": {"w":135,"h":84}
},
"MenusContent-music/select_down":
{
	"frame": {"x":1324,"y":665,"w":135,"h":84},
	"rotated": false,
	"trimmed": false,
	"spriteSourceSize": {"x":0,"y":0,"w":135,"h":84},
	"sourceSize": {"w":135,"h":84}
},
"MenusContent-music/select_off":
{
	"frame": {"x":1460,"y":665,"w":135,"h":84},
	"rotated": false,
	"trimmed": false,
	"spriteSourceSize": {"x":0,"y":0,"w":135,"h":84},
	"sourceSize": {"w":135,"h":84}
},
"MenusContent-music/select_over":
{
	"frame": {"x":1596,"y":665,"w":135,"h":84},
	"rotated": false,
	"trimmed": false,
	"spriteSourceSize": {"x":0,"y":0,"w":135,"h":84},
	"sourceSize": {"w":135,"h":84}
},
"MenusContent-music/select_up":
{
	"frame": {"x":1732,"y":665,"w":135,"h":84},
	"rotated": false,
	"trimmed": false,
	"spriteSourceSize": {"x":0,"y":0,"w":135,"h":84},
	"sourceSize": {"w":135,"h":84}
},
"MenusContent-music/up":
{
	"frame": {"x":1868,"y":665,"w":135,"h":84},
	"rotated": false,
	"trimmed": false,
	"spriteSourceSize": {"x":0,"y":0,"w":135,"h":84},
	"sourceSize": {"w":135,"h":84}
},
"MenusContent-play/down":
{
	"frame": {"x":824,"y":125,"w":260,"h":124},
	"rotated": false,
	"trimmed": false,
	"spriteSourceSize": {"x":0,"y":0,"w":260,"h":124},
	"sourceSize": {"w":260,"h":124}
},
"MenusContent-play/off":
{
	"frame": {"x":261,"y":926,"w":260,"h":124},
	"rotated": false,
	"trimmed": false,
	"spriteSourceSize": {"x":0,"y":0,"w":260,"h":124},
	"sourceSize": {"w":260,"h":124}
},
"MenusContent-play/over":
{
	"frame": {"x":1085,"y":125,"w":260,"h":124},
	"rotated": false,
	"trimmed": false,
	"spriteSourceSize": {"x":0,"y":0,"w":260,"h":124},
	"sourceSize": {"w":260,"h":124}
},
"MenusContent-play/up":
{
	"frame": {"x":279,"y":250,"w":260,"h":124},
	"rotated": false,
	"trimmed": false,
	"spriteSourceSize": {"x":0,"y":0,"w":260,"h":124},
	"sourceSize": {"w":260,"h":124}
},
"MenusContent-sound/down":
{
	"frame": {"x":818,"y":820,"w":135,"h":84},
	"rotated": false,
	"trimmed": false,
	"spriteSourceSize": {"x":0,"y":0,"w":135,"h":84},
	"sourceSize": {"w":135,"h":84}
},
"MenusContent-sound/off":
{
	"frame": {"x":1198,"y":577,"w":135,"h":84},
	"rotated": false,
	"trimmed": false,
	"spriteSourceSize": {"x":0,"y":0,"w":135,"h":84},
	"sourceSize": {"w":135,"h":84}
},
"MenusContent-sound/over":
{
	"frame": {"x":1188,"y":662,"w":135,"h":84},
	"rotated": false,
	"trimmed": false,
	"spriteSourceSize": {"x":0,"y":0,"w":135,"h":84},
	"sourceSize": {"w":135,"h":84}
},
"MenusContent-sound/select_down":
{
	"frame": {"x":1324,"y":665,"w":135,"h":84},
	"rotated": false,
	"trimmed": false,
	"spriteSourceSize": {"x":0,"y":0,"w":135,"h":84},
	"sourceSize": {"w":135,"h":84}
},
"MenusContent-sound/select_off":
{
	"frame": {"x":1460,"y":665,"w":135,"h":84},
	"rotated": false,
	"trimmed": false,
	"spriteSourceSize": {"x":0,"y":0,"w":135,"h":84},
	"sourceSize": {"w":135,"h":84}
},
"MenusContent-sound/select_over":
{
	"frame": {"x":1596,"y":665,"w":135,"h":84},
	"rotated": false,
	"trimmed": false,
	"spriteSourceSize": {"x":0,"y":0,"w":135,"h":84},
	"sourceSize": {"w":135,"h":84}
},
"MenusContent-sound/select_up":
{
	"frame": {"x":1732,"y":665,"w":135,"h":84},
	"rotated": false,
	"trimmed": false,
	"spriteSourceSize": {"x":0,"y":0,"w":135,"h":84},
	"sourceSize": {"w":135,"h":84}
},
"MenusContent-sound/up":
{
	"frame": {"x":1868,"y":665,"w":135,"h":84},
	"rotated": false,
	"trimmed": false,
	"spriteSourceSize": {"x":0,"y":0,"w":135,"h":84},
	"sourceSize": {"w":135,"h":84}
},
"MenusContent-spinsCount/down":
{
	"frame": {"x":643,"y":745,"w":174,"h":74},
	"rotated": false,
	"trimmed": false,
	"spriteSourceSize": {"x":0,"y":0,"w":174,"h":74},
	"sourceSize": {"w":174,"h":74}
},
"MenusContent-spinsCount/off":
{
	"frame": {"x":1013,"y":655,"w":174,"h":74},
	"rotated": false,
	"trimmed": false,
	"spriteSourceSize": {"x":0,"y":0,"w":174,"h":74},
	"sourceSize": {"w":174,"h":74}
},
"MenusContent-spinsCount/over":
{
	"frame": {"x":818,"y":745,"w":174,"h":74},
	"rotated": false,
	"trimmed": false,
	"spriteSourceSize": {"x":0,"y":0,"w":174,"h":74},
	"sourceSize": {"w":174,"h":74}
},
"MenusContent-spinsCount/select_down":
{
	"frame": {"x":1323,"y":310,"w":204,"h":104},
	"rotated": false,
	"trimmed": false,
	"spriteSourceSize": {"x":0,"y":0,"w":204,"h":104},
	"sourceSize": {"w":204,"h":104}
},
"MenusContent-spinsCount/select_off":
{
	"frame": {"x":1528,"y":310,"w":204,"h":104},
	"rotated": false,
	"trimmed": false,
	"spriteSourceSize": {"x":0,"y":0,"w":204,"h":104},
	"sourceSize": {"w":204,"h":104}
},
"MenusContent-spinsCount/select_over":
{
	"frame": {"x":1733,"y":310,"w":204,"h":104},
	"rotated": false,
	"trimmed": false,
	"spriteSourceSize": {"x":0,"y":0,"w":204,"h":104},
	"sourceSize": {"w":204,"h":104}
},
"MenusContent-spinsCount/select_up":
{
	"frame": {"x":279,"y":375,"w":204,"h":104},
	"rotated": false,
	"trimmed": false,
	"spriteSourceSize": {"x":0,"y":0,"w":204,"h":104},
	"sourceSize": {"w":204,"h":104}
},
"MenusContent-spinsCount/up":
{
	"frame": {"x":643,"y":820,"w":174,"h":74},
	"rotated": false,
	"trimmed": false,
	"spriteSourceSize": {"x":0,"y":0,"w":174,"h":74},
	"sourceSize": {"w":174,"h":74}
},
"MenusContent-winAmount/down":
{
	"frame": {"x":0,"y":1051,"w":231,"h":104},
	"rotated": false,
	"trimmed": false,
	"spriteSourceSize": {"x":0,"y":0,"w":231,"h":104},
	"sourceSize": {"w":231,"h":104}
},
"MenusContent-winAmount/off":
{
	"frame": {"x":232,"y":1051,"w":231,"h":104},
	"rotated": false,
	"trimmed": false,
	"spriteSourceSize": {"x":0,"y":0,"w":231,"h":104},
	"sourceSize": {"w":231,"h":104}
},
"MenusContent-winAmount/over":
{
	"frame": {"x":1801,"y":0,"w":231,"h":104},
	"rotated": false,
	"trimmed": false,
	"spriteSourceSize": {"x":0,"y":0,"w":231,"h":104},
	"sourceSize": {"w":231,"h":104}
},
"MenusContent-winAmount/select_down":
{
	"frame": {"x":0,"y":386,"w":261,"h":134},
	"rotated": false,
	"trimmed": false,
	"spriteSourceSize": {"x":0,"y":0,"w":261,"h":134},
	"sourceSize": {"w":261,"h":134}
},
"MenusContent-winAmount/select_off":
{
	"frame": {"x":0,"y":521,"w":261,"h":134},
	"rotated": false,
	"trimmed": false,
	"spriteSourceSize": {"x":0,"y":0,"w":261,"h":134},
	"sourceSize": {"w":261,"h":134}
},
"MenusContent-winAmount/select_over":
{
	"frame": {"x":0,"y":656,"w":261,"h":134},
	"rotated": false,
	"trimmed": false,
	"spriteSourceSize": {"x":0,"y":0,"w":261,"h":134},
	"sourceSize": {"w":261,"h":134}
},
"MenusContent-winAmount/select_up":
{
	"frame": {"x":0,"y":791,"w":261,"h":134},
	"rotated": false,
	"trimmed": false,
	"spriteSourceSize": {"x":0,"y":0,"w":261,"h":134},
	"sourceSize": {"w":261,"h":134}
},
"MenusContent-winAmount/up":
{
	"frame": {"x":464,"y":1051,"w":231,"h":104},
	"rotated": false,
	"trimmed": false,
	"spriteSourceSize": {"x":0,"y":0,"w":231,"h":104},
	"sourceSize": {"w":231,"h":104}
},
"MenuUI-autospin/down":
{
	"frame": {"x":1330,"y":415,"w":124,"h":124},
	"rotated": false,
	"trimmed": false,
	"spriteSourceSize": {"x":0,"y":0,"w":124,"h":124},
	"sourceSize": {"w":124,"h":124}
},
"MenuUI-autospin/off":
{
	"frame": {"x":1455,"y":415,"w":124,"h":124},
	"rotated": false,
	"trimmed": false,
	"spriteSourceSize": {"x":0,"y":0,"w":124,"h":124},
	"sourceSize": {"w":124,"h":124}
},
"MenuUI-autospin/over":
{
	"frame": {"x":1580,"y":415,"w":124,"h":124},
	"rotated": false,
	"trimmed": false,
	"spriteSourceSize": {"x":0,"y":0,"w":124,"h":124},
	"sourceSize": {"w":124,"h":124}
},
"MenuUI-autospin/up":
{
	"frame": {"x":1705,"y":415,"w":124,"h":124},
	"rotated": false,
	"trimmed": false,
	"spriteSourceSize": {"x":0,"y":0,"w":124,"h":124},
	"sourceSize": {"w":124,"h":124}
},
"MenuUI-bet/down":
{
	"frame": {"x":1830,"y":415,"w":124,"h":124},
	"rotated": false,
	"trimmed": false,
	"spriteSourceSize": {"x":0,"y":0,"w":124,"h":124},
	"sourceSize": {"w":124,"h":124}
},
"MenuUI-bet/off":
{
	"frame": {"x":1334,"y":540,"w":124,"h":124},
	"rotated": false,
	"trimmed": false,
	"spriteSourceSize": {"x":0,"y":0,"w":124,"h":124},
	"sourceSize": {"w":124,"h":124}
},
"MenuUI-bet/over":
{
	"frame": {"x":1459,"y":540,"w":124,"h":124},
	"rotated": false,
	"trimmed": false,
	"spriteSourceSize": {"x":0,"y":0,"w":124,"h":124},
	"sourceSize": {"w":124,"h":124}
},
"MenuUI-bet/up":
{
	"frame": {"x":1584,"y":540,"w":124,"h":124},
	"rotated": false,
	"trimmed": false,
	"spriteSourceSize": {"x":0,"y":0,"w":124,"h":124},
	"sourceSize": {"w":124,"h":124}
},
"MenuUI-close/down":
{
	"frame": {"x":878,"y":905,"w":124,"h":124},
	"rotated": false,
	"trimmed": false,
	"spriteSourceSize": {"x":0,"y":0,"w":124,"h":124},
	"sourceSize": {"w":124,"h":124}
},
"MenuUI-close/off":
{
	"frame": {"x":1003,"y":855,"w":124,"h":124},
	"rotated": false,
	"trimmed": false,
	"spriteSourceSize": {"x":0,"y":0,"w":124,"h":124},
	"sourceSize": {"w":124,"h":124}
},
"MenuUI-close/over":
{
	"frame": {"x":1128,"y":872,"w":124,"h":124},
	"rotated": false,
	"trimmed": false,
	"spriteSourceSize": {"x":0,"y":0,"w":124,"h":124},
	"sourceSize": {"w":124,"h":124}
},
"MenuUI-close/up":
{
	"frame": {"x":1253,"y":875,"w":124,"h":124},
	"rotated": false,
	"trimmed": false,
	"spriteSourceSize": {"x":0,"y":0,"w":124,"h":124},
	"sourceSize": {"w":124,"h":124}
},
"MenuUI-home/down":
{
	"frame": {"x":1378,"y":875,"w":124,"h":124},
	"rotated": false,
	"trimmed": false,
	"spriteSourceSize": {"x":0,"y":0,"w":124,"h":124},
	"sourceSize": {"w":124,"h":124}
},
"MenuUI-home/off":
{
	"frame": {"x":1503,"y":875,"w":124,"h":124},
	"rotated": false,
	"trimmed": false,
	"spriteSourceSize": {"x":0,"y":0,"w":124,"h":124},
	"sourceSize": {"w":124,"h":124}
},
"MenuUI-home/over":
{
	"frame": {"x":1628,"y":875,"w":124,"h":124},
	"rotated": false,
	"trimmed": false,
	"spriteSourceSize": {"x":0,"y":0,"w":124,"h":124},
	"sourceSize": {"w":124,"h":124}
},
"MenuUI-home/up":
{
	"frame": {"x":1753,"y":875,"w":124,"h":124},
	"rotated": false,
	"trimmed": false,
	"spriteSourceSize": {"x":0,"y":0,"w":124,"h":124},
	"sourceSize": {"w":124,"h":124}
},
"MenuUI-next/down":
{
	"frame": {"x":1923,"y":105,"w":105,"h":116},
	"rotated": false,
	"trimmed": false,
	"spriteSourceSize": {"x":0,"y":0,"w":105,"h":116},
	"sourceSize": {"w":105,"h":116}
},
"MenuUI-next/off":
{
	"frame": {"x":1224,"y":460,"w":105,"h":116},
	"rotated": false,
	"trimmed": false,
	"spriteSourceSize": {"x":0,"y":0,"w":105,"h":116},
	"sourceSize": {"w":105,"h":116}
},
"MenuUI-next/over":
{
	"frame": {"x":522,"y":840,"w":105,"h":116},
	"rotated": false,
	"trimmed": false,
	"spriteSourceSize": {"x":0,"y":0,"w":105,"h":116},
	"sourceSize": {"w":105,"h":116}
},
"MenuUI-next/up":
{
	"frame": {"x":1378,"y":1000,"w":105,"h":116},
	"rotated": false,
	"trimmed": false,
	"spriteSourceSize": {"x":0,"y":0,"w":105,"h":116},
	"sourceSize": {"w":105,"h":116}
},
"MenuUI-previous/down":
{
	"frame": {"x":1484,"y":1000,"w":105,"h":116},
	"rotated": false,
	"trimmed": false,
	"spriteSourceSize": {"x":0,"y":0,"w":105,"h":116},
	"sourceSize": {"w":105,"h":116}
},
"MenuUI-previous/off":
{
	"frame": {"x":1590,"y":1000,"w":105,"h":116},
	"rotated": false,
	"trimmed": false,
	"spriteSourceSize": {"x":0,"y":0,"w":105,"h":116},
	"sourceSize": {"w":105,"h":116}
},
"MenuUI-previous/over":
{
	"frame": {"x":1696,"y":1000,"w":105,"h":116},
	"rotated": false,
	"trimmed": false,
	"spriteSourceSize": {"x":0,"y":0,"w":105,"h":116},
	"sourceSize": {"w":105,"h":116}
},
"MenuUI-previous/up":
{
	"frame": {"x":1802,"y":1000,"w":105,"h":116},
	"rotated": false,
	"trimmed": false,
	"spriteSourceSize": {"x":0,"y":0,"w":105,"h":116},
	"sourceSize": {"w":105,"h":116}
},
"MenuUI-settings/down":
{
	"frame": {"x":1878,"y":875,"w":124,"h":124},
	"rotated": false,
	"trimmed": false,
	"spriteSourceSize": {"x":0,"y":0,"w":124,"h":124},
	"sourceSize": {"w":124,"h":124}
},
"MenuUI-settings/off":
{
	"frame": {"x":1003,"y":980,"w":124,"h":124},
	"rotated": false,
	"trimmed": false,
	"spriteSourceSize": {"x":0,"y":0,"w":124,"h":124},
	"sourceSize": {"w":124,"h":124}
},
"MenuUI-settings/over":
{
	"frame": {"x":1128,"y":997,"w":124,"h":124},
	"rotated": false,
	"trimmed": false,
	"spriteSourceSize": {"x":0,"y":0,"w":124,"h":124},
	"sourceSize": {"w":124,"h":124}
},
"MenuUI-settings/up":
{
	"frame": {"x":1253,"y":1000,"w":124,"h":124},
	"rotated": false,
	"trimmed": false,
	"spriteSourceSize": {"x":0,"y":0,"w":124,"h":124},
	"sourceSize": {"w":124,"h":124}
},
"MenuUI-sound/down":
{
	"frame": {"x":1263,"y":750,"w":124,"h":124},
	"rotated": false,
	"trimmed": false,
	"spriteSourceSize": {"x":0,"y":0,"w":124,"h":124},
	"sourceSize": {"w":124,"h":124}
},
"MenuUI-sound/off":
{
	"frame": {"x":1388,"y":750,"w":124,"h":124},
	"rotated": false,
	"trimmed": false,
	"spriteSourceSize": {"x":0,"y":0,"w":124,"h":124},
	"sourceSize": {"w":124,"h":124}
},
"MenuUI-sound/over":
{
	"frame": {"x":1513,"y":750,"w":124,"h":124},
	"rotated": false,
	"trimmed": false,
	"spriteSourceSize": {"x":0,"y":0,"w":124,"h":124},
	"sourceSize": {"w":124,"h":124}
},
"MenuUI-sound/up":
{
	"frame": {"x":753,"y":905,"w":124,"h":124},
	"rotated": false,
	"trimmed": false,
	"spriteSourceSize": {"x":0,"y":0,"w":124,"h":124},
	"sourceSize": {"w":124,"h":124}
},
"Popups-cancel/down":
{
	"frame": {"x":540,"y":250,"w":260,"h":124},
	"rotated": false,
	"trimmed": false,
	"spriteSourceSize": {"x":0,"y":0,"w":260,"h":124},
	"sourceSize": {"w":260,"h":124}
},
"Popups-cancel/off":
{
	"frame": {"x":261,"y":926,"w":260,"h":124},
	"rotated": false,
	"trimmed": false,
	"spriteSourceSize": {"x":0,"y":0,"w":260,"h":124},
	"sourceSize": {"w":260,"h":124}
},
"Popups-cancel/over":
{
	"frame": {"x":801,"y":250,"w":260,"h":124},
	"rotated": false,
	"trimmed": false,
	"spriteSourceSize": {"x":0,"y":0,"w":260,"h":124},
	"sourceSize": {"w":260,"h":124}
},
"Popups-cancel/up":
{
	"frame": {"x":1062,"y":250,"w":260,"h":124},
	"rotated": false,
	"trimmed": false,
	"spriteSourceSize": {"x":0,"y":0,"w":260,"h":124},
	"sourceSize": {"w":260,"h":124}
},
"Popups-choice/down":
{
	"frame": {"x":458,"y":745,"w":184,"h":94},
	"rotated": false,
	"trimmed": false,
	"spriteSourceSize": {"x":0,"y":0,"w":184,"h":94},
	"sourceSize": {"w":184,"h":94}
},
"Popups-choice/off":
{
	"frame": {"x":458,"y":745,"w":184,"h":94},
	"rotated": false,
	"trimmed": false,
	"spriteSourceSize": {"x":0,"y":0,"w":184,"h":94},
	"sourceSize": {"w":184,"h":94}
},
"Popups-choice/over":
{
	"frame": {"x":458,"y":745,"w":184,"h":94},
	"rotated": false,
	"trimmed": false,
	"spriteSourceSize": {"x":0,"y":0,"w":184,"h":94},
	"sourceSize": {"w":184,"h":94}
},
"Popups-choice/select_down":
{
	"frame": {"x":1013,"y":560,"w":184,"h":94},
	"rotated": false,
	"trimmed": false,
	"spriteSourceSize": {"x":0,"y":0,"w":184,"h":94},
	"sourceSize": {"w":184,"h":94}
},
"Popups-choice/select_off":
{
	"frame": {"x":1013,"y":560,"w":184,"h":94},
	"rotated": false,
	"trimmed": false,
	"spriteSourceSize": {"x":0,"y":0,"w":184,"h":94},
	"sourceSize": {"w":184,"h":94}
},
"Popups-choice/select_over":
{
	"frame": {"x":1013,"y":560,"w":184,"h":94},
	"rotated": false,
	"trimmed": false,
	"spriteSourceSize": {"x":0,"y":0,"w":184,"h":94},
	"sourceSize": {"w":184,"h":94}
},
"Popups-choice/select_up":
{
	"frame": {"x":1013,"y":560,"w":184,"h":94},
	"rotated": false,
	"trimmed": false,
	"spriteSourceSize": {"x":0,"y":0,"w":184,"h":94},
	"sourceSize": {"w":184,"h":94}
},
"Popups-choice/up":
{
	"frame": {"x":458,"y":745,"w":184,"h":94},
	"rotated": false,
	"trimmed": false,
	"spriteSourceSize": {"x":0,"y":0,"w":184,"h":94},
	"sourceSize": {"w":184,"h":94}
},
"Popups-close/down":
{
	"frame": {"x":878,"y":905,"w":124,"h":124},
	"rotated": false,
	"trimmed": false,
	"spriteSourceSize": {"x":0,"y":0,"w":124,"h":124},
	"sourceSize": {"w":124,"h":124}
},
"Popups-close/off":
{
	"frame": {"x":1003,"y":855,"w":124,"h":124},
	"rotated": false,
	"trimmed": false,
	"spriteSourceSize": {"x":0,"y":0,"w":124,"h":124},
	"sourceSize": {"w":124,"h":124}
},
"Popups-close/over":
{
	"frame": {"x":1128,"y":872,"w":124,"h":124},
	"rotated": false,
	"trimmed": false,
	"spriteSourceSize": {"x":0,"y":0,"w":124,"h":124},
	"sourceSize": {"w":124,"h":124}
},
"Popups-close/up":
{
	"frame": {"x":1253,"y":875,"w":124,"h":124},
	"rotated": false,
	"trimmed": false,
	"spriteSourceSize": {"x":0,"y":0,"w":124,"h":124},
	"sourceSize": {"w":124,"h":124}
},
"Popups-continue/down":
{
	"frame": {"x":302,"y":0,"w":304,"h":124},
	"rotated": false,
	"trimmed": false,
	"spriteSourceSize": {"x":0,"y":0,"w":304,"h":124},
	"sourceSize": {"w":304,"h":124}
},
"Popups-continue/off":
{
	"frame": {"x":607,"y":0,"w":304,"h":124},
	"rotated": false,
	"trimmed": false,
	"spriteSourceSize": {"x":0,"y":0,"w":304,"h":124},
	"sourceSize": {"w":304,"h":124}
},
"Popups-continue/over":
{
	"frame": {"x":912,"y":0,"w":304,"h":124},
	"rotated": false,
	"trimmed": false,
	"spriteSourceSize": {"x":0,"y":0,"w":304,"h":124},
	"sourceSize": {"w":304,"h":124}
},
"Popups-continue/up":
{
	"frame": {"x":1217,"y":0,"w":304,"h":124},
	"rotated": false,
	"trimmed": false,
	"spriteSourceSize": {"x":0,"y":0,"w":304,"h":124},
	"sourceSize": {"w":304,"h":124}
},
"Popups-exit/down":
{
	"frame": {"x":0,"y":144,"w":278,"h":120},
	"rotated": false,
	"trimmed": false,
	"spriteSourceSize": {"x":0,"y":0,"w":278,"h":120},
	"sourceSize": {"w":278,"h":120}
},
"Popups-exit/off":
{
	"frame": {"x":1522,"y":0,"w":278,"h":120},
	"rotated": false,
	"trimmed": false,
	"spriteSourceSize": {"x":0,"y":0,"w":278,"h":120},
	"sourceSize": {"w":278,"h":120}
},
"Popups-exit/over":
{
	"frame": {"x":0,"y":0,"w":301,"h":143},
	"rotated": false,
	"trimmed": false,
	"spriteSourceSize": {"x":0,"y":0,"w":301,"h":143},
	"sourceSize": {"w":301,"h":143}
},
"Popups-exit/up":
{
	"frame": {"x":0,"y":265,"w":278,"h":120},
	"rotated": false,
	"trimmed": false,
	"spriteSourceSize": {"x":0,"y":0,"w":278,"h":120},
	"sourceSize": {"w":278,"h":120}
},
"Popups-history/down":
{
	"frame": {"x":302,"y":0,"w":304,"h":124},
	"rotated": false,
	"trimmed": false,
	"spriteSourceSize": {"x":0,"y":0,"w":304,"h":124},
	"sourceSize": {"w":304,"h":124}
},
"Popups-history/off":
{
	"frame": {"x":607,"y":0,"w":304,"h":124},
	"rotated": false,
	"trimmed": false,
	"spriteSourceSize": {"x":0,"y":0,"w":304,"h":124},
	"sourceSize": {"w":304,"h":124}
},
"Popups-history/over":
{
	"frame": {"x":912,"y":0,"w":304,"h":124},
	"rotated": false,
	"trimmed": false,
	"spriteSourceSize": {"x":0,"y":0,"w":304,"h":124},
	"sourceSize": {"w":304,"h":124}
},
"Popups-history/up":
{
	"frame": {"x":1217,"y":0,"w":304,"h":124},
	"rotated": false,
	"trimmed": false,
	"spriteSourceSize": {"x":0,"y":0,"w":304,"h":124},
	"sourceSize": {"w":304,"h":124}
},
"Popups-lobby/down":
{
	"frame": {"x":302,"y":0,"w":304,"h":124},
	"rotated": false,
	"trimmed": false,
	"spriteSourceSize": {"x":0,"y":0,"w":304,"h":124},
	"sourceSize": {"w":304,"h":124}
},
"Popups-lobby/off":
{
	"frame": {"x":607,"y":0,"w":304,"h":124},
	"rotated": false,
	"trimmed": false,
	"spriteSourceSize": {"x":0,"y":0,"w":304,"h":124},
	"sourceSize": {"w":304,"h":124}
},
"Popups-lobby/over":
{
	"frame": {"x":912,"y":0,"w":304,"h":124},
	"rotated": false,
	"trimmed": false,
	"spriteSourceSize": {"x":0,"y":0,"w":304,"h":124},
	"sourceSize": {"w":304,"h":124}
},
"Popups-lobby/up":
{
	"frame": {"x":1217,"y":0,"w":304,"h":124},
	"rotated": false,
	"trimmed": false,
	"spriteSourceSize": {"x":0,"y":0,"w":304,"h":124},
	"sourceSize": {"w":304,"h":124}
},
"Popups-minus/down":
{
	"frame": {"x":1224,"y":375,"w":84,"h":84},
	"rotated": false,
	"trimmed": false,
	"spriteSourceSize": {"x":0,"y":0,"w":84,"h":84},
	"sourceSize": {"w":84,"h":84}
},
"Popups-minus/off":
{
	"frame": {"x":1923,"y":222,"w":84,"h":84},
	"rotated": false,
	"trimmed": false,
	"spriteSourceSize": {"x":0,"y":0,"w":84,"h":84},
	"sourceSize": {"w":84,"h":84}
},
"Popups-minus/over":
{
	"frame": {"x":1938,"y":307,"w":84,"h":84},
	"rotated": false,
	"trimmed": false,
	"spriteSourceSize": {"x":0,"y":0,"w":84,"h":84},
	"sourceSize": {"w":84,"h":84}
},
"Popups-minus/up":
{
	"frame": {"x":522,"y":957,"w":84,"h":84},
	"rotated": false,
	"trimmed": false,
	"spriteSourceSize": {"x":0,"y":0,"w":84,"h":84},
	"sourceSize": {"w":84,"h":84}
},
"Popups-ok/down":
{
	"frame": {"x":824,"y":125,"w":260,"h":124},
	"rotated": false,
	"trimmed": false,
	"spriteSourceSize": {"x":0,"y":0,"w":260,"h":124},
	"sourceSize": {"w":260,"h":124}
},
"Popups-ok/off":
{
	"frame": {"x":261,"y":926,"w":260,"h":124},
	"rotated": false,
	"trimmed": false,
	"spriteSourceSize": {"x":0,"y":0,"w":260,"h":124},
	"sourceSize": {"w":260,"h":124}
},
"Popups-ok/over":
{
	"frame": {"x":1085,"y":125,"w":260,"h":124},
	"rotated": false,
	"trimmed": false,
	"spriteSourceSize": {"x":0,"y":0,"w":260,"h":124},
	"sourceSize": {"w":260,"h":124}
},
"Popups-ok/up":
{
	"frame": {"x":279,"y":250,"w":260,"h":124},
	"rotated": false,
	"trimmed": false,
	"spriteSourceSize": {"x":0,"y":0,"w":260,"h":124},
	"sourceSize": {"w":260,"h":124}
},
"Popups-plus/down":
{
	"frame": {"x":1908,"y":1000,"w":84,"h":84},
	"rotated": false,
	"trimmed": false,
	"spriteSourceSize": {"x":0,"y":0,"w":84,"h":84},
	"sourceSize": {"w":84,"h":84}
},
"Popups-plus/off":
{
	"frame": {"x":696,"y":1030,"w":84,"h":84},
	"rotated": false,
	"trimmed": false,
	"spriteSourceSize": {"x":0,"y":0,"w":84,"h":84},
	"sourceSize": {"w":84,"h":84}
},
"Popups-plus/over":
{
	"frame": {"x":781,"y":1030,"w":84,"h":84},
	"rotated": false,
	"trimmed": false,
	"spriteSourceSize": {"x":0,"y":0,"w":84,"h":84},
	"sourceSize": {"w":84,"h":84}
},
"Popups-plus/up":
{
	"frame": {"x":866,"y":1030,"w":84,"h":84},
	"rotated": false,
	"trimmed": false,
	"spriteSourceSize": {"x":0,"y":0,"w":84,"h":84},
	"sourceSize": {"w":84,"h":84}
},
"Popups-skip/down":
{
	"frame": {"x":0,"y":144,"w":278,"h":120},
	"rotated": false,
	"trimmed": false,
	"spriteSourceSize": {"x":0,"y":0,"w":278,"h":120},
	"sourceSize": {"w":278,"h":120}
},
"Popups-skip/off":
{
	"frame": {"x":1522,"y":0,"w":278,"h":120},
	"rotated": false,
	"trimmed": false,
	"spriteSourceSize": {"x":0,"y":0,"w":278,"h":120},
	"sourceSize": {"w":278,"h":120}
},
"Popups-skip/over":
{
	"frame": {"x":0,"y":0,"w":301,"h":143},
	"rotated": false,
	"trimmed": false,
	"spriteSourceSize": {"x":0,"y":0,"w":301,"h":143},
	"sourceSize": {"w":301,"h":143}
},
"Popups-skip/up":
{
	"frame": {"x":0,"y":265,"w":278,"h":120},
	"rotated": false,
	"trimmed": false,
	"spriteSourceSize": {"x":0,"y":0,"w":278,"h":120},
	"sourceSize": {"w":278,"h":120}
},
"Preloader-play/down":
{
	"frame": {"x":824,"y":125,"w":260,"h":124},
	"rotated": false,
	"trimmed": false,
	"spriteSourceSize": {"x":0,"y":0,"w":260,"h":124},
	"sourceSize": {"w":260,"h":124}
},
"Preloader-play/off":
{
	"frame": {"x":261,"y":926,"w":260,"h":124},
	"rotated": false,
	"trimmed": false,
	"spriteSourceSize": {"x":0,"y":0,"w":260,"h":124},
	"sourceSize": {"w":260,"h":124}
},
"Preloader-play/over":
{
	"frame": {"x":1085,"y":125,"w":260,"h":124},
	"rotated": false,
	"trimmed": false,
	"spriteSourceSize": {"x":0,"y":0,"w":260,"h":124},
	"sourceSize": {"w":260,"h":124}
},
"Preloader-play/up":
{
	"frame": {"x":279,"y":250,"w":260,"h":124},
	"rotated": false,
	"trimmed": false,
	"spriteSourceSize": {"x":0,"y":0,"w":260,"h":124},
	"sourceSize": {"w":260,"h":124}
}},
"meta": {
	"app": "https://www.codeandweb.com/texturepacker",
	"version": "1.0",
	"image": "ui-0.png",
	"format": "RGBA8888",
	"size": {"w":2032,"h":1155},
	"scale": "1",
	"smartupdate": "$TexturePacker:SmartUpdate:9e2865d51d6d19036bff53d014d21331:ac85104262bc45d1332da2db11a2ae03:0a231f82c1ea997720a66b3d70c03ba1$"
}
}
